[datadavidz] - Tidy Tuesday: CEO Departures
…
departures_clean

# A tibble: 120 × 3
   fyear departure_code     n
   <dbl> <fct>          <int>
 1  1995 Health             8
 2  1995 Performance       34
 3  1995 CEO Choice       129
 4  1995 Merger            48
 5  1995 N/A                2
 6  1996 Health             4
 7  1996 Performance       42
 8  1996 CEO Choice       130
 9  1996 Merger           139
10  1996 N/A                2
# … with 110 more rows
…
